{
    "area": [
        {
            "height": 15,
            "type": "match",
            "width": 44,
            "xpos": 12,
            "ypos": 8
        }
    ],
    "properties": [],
    "tags": [
        "DESKTOP-gnome",
        "ENV-DISTRI-fedora",
        "LANGUAGE-russian",
        "apps_menu_button"
    ]
}